{
    "name": "Meta",
    "alias": "meta",
    "description": "",
    "keywords": [],
    "active": 1,
    "order": 0,
    "providers": [
        "Modules\\Meta\\Providers\\MetaServiceProvider"
    ],
    "aliases":{},
    "files": [
        "start.php"
    ]
}
